…
``` r
bake_off_tidy|>
  filter(series %in% 5:10, result == "STAR BAKER"|result == "WINNER")
```

    ## # A tibble: 60 × 11
    ##    first_name last_name   baker_age baker_occupation     hometown series episode
    ##    <chr>      <chr>           <dbl> <chr>                <chr>     <dbl>   <dbl>
    ##  1 Nancy      Birtwhistle        60 Retired Practice Ma… Barton-…      5       1
    ##  2 Richard    Burr               38 Builder              Mill Hi…      5       2
    ##  3 Luis       Troyano            42 Graphic Designer     Poynton…      5       3
    ##  4 Richard    Burr               38 Builder              Mill Hi…      5       4
    ##  5 Kate       Henry              41 Furniture Restorer   Brighto…      5       5
    ##  6 Chetna     Makan              35 Fashion Designer     Broadst…      5       6
    ##  7 Richard    Burr               38 Builder              Mill Hi…      5       7
    ##  8 Richard    Burr               38 Builder              Mill Hi…      5       8
    ##  9 Richard    Burr               38 Builder              Mill Hi…      5       9
    ## 10 Nancy      Birtwhistle        60 Retired Practice Ma… Barton-…      5      10
    ## # ℹ 50 more rows
    ## # ℹ 4 more variables: signature_bake <chr>, show_stopper <chr>, result <chr>,
    ## #   technical <dbl>
…
